{
    "workbench.colorTheme": "Default Dark+",
    "workbench.iconTheme": "vs-seti",
    "editor.autoSave": "on",
    "editor.autoSaveDelay": 2000,
    "[go]": {
        "editor.insertSpaces": true,
        "editor.formatOnSave": true,
        "editor.codeActionsOnSave": {
            "source.organizeImports": true
        }
    },
    "editor.fontFamily": "'Fira Code','Droid Sans Mono', 'monospace', monospace, 'Droid Sans Fallback'",
    "editor.fontLigatures": true,
    "editor.fontSize": 12,
    "go.useLanguageServer": true,
    "gopls": {
        "ui.semanticTokens": true
    }
}
